{
  "defaultEnv": "local",
  "sql-file" : true,
  "local": {
    "driver": "pg",
    "port": 6432,
    "host": { "ENV": "POSTGRESQL_HOST" },
    "user": { "ENV": "POSTGRESQL_USER" },
    "password": { "ENV": "POSTGRESQL_PASSWORD" },
    "database": { "ENV": "POSTGRESQL_DATABASE" },
    "schema": "public"
  },
  "prod": {
    "driver": "pg",
    "port": 6432,
    "host": "51.15.43.32",
    "user": "time",
    "password": "gjcktlyzzbcrhf",
    "database": "time",
    "schema": "public"
  }
}
